…
csv_files
```

    ## # A tibble: 160 x 3
    ##    participant            week_no count
    ##    <chr>                  <chr>   <dbl>
    ##  1 control_participant_01 week_1   0.2 
    ##  2 control_participant_01 week_2  -1.31
    ##  3 control_participant_01 week_3   0.66
    ##  4 control_participant_01 week_4   1.96
    ##  5 control_participant_01 week_5   0.23
    ##  6 control_participant_01 week_6   1.09
    ##  7 control_participant_01 week_7   0.05
    ##  8 control_participant_01 week_8   1.94
    ##  9 control_participant_02 week_1   1.13
    ## 10 control_participant_02 week_2  -0.88
    ## # … with 150 more rows
…
